{
  "development": {
    "username": "wzdfenefaamixa",
    "password": "771ee0579a5ed464f3faf3c056732aaa503741857572558e5eca0edf92991eda",
    "database": "dc9q0tkm2hsiq1",
    "host": "ec2-54-204-241-136.compute-1.amazonaws.com",
    "dialect": "postgres"
  },
  "test": {
    "username": "wzdfenefaamixa",
    "password": "771ee0579a5ed464f3faf3c056732aaa503741857572558e5eca0edf92991eda",
    "database": "dc9q0tkm2hsiq1",
    "host": "ec2-54-204-241-136.compute-1.amazonaws.com",
    "dialect": "postgres"
  },
  "production": {
    "username": "wzdfenefaamixa",
    "password": "771ee0579a5ed464f3faf3c056732aaa503741857572558e5eca0edf92991eda",
    "database": "dc9q0tkm2hsiq1",
    "host": "ec2-54-204-241-136.compute-1.amazonaws.com",
    "dialect": "postgres"
  },
  "dialectOptions": {
    "ssl": {
      "require": true,
      "rejectUnauthorized": false
    }
  }
}




